[
    {
        "ident" : "pd2_autoupdate_tutorial",
        "version" : 3,
        "patchnotes_url" : "https://gitlab.com/LeftOwlRight/pd2autoupdate-tutorial",
        "download_url" : "https://gitlab.com/LeftOwlRight/pd2autoupdate-tutorial/-/archive/main/pd2autoupdate-tutorial-main.zip"
    }
]
